{
    "type": "application",
    "source-directories": [
        "front"
    ],
    "elm-version": "0.19.0",
    "dependencies": {
        "direct": {
            "elm/browser": "1.0.1",
            "elm/core": "1.0.2",
            "elm/html": "1.0.0",
            "elm/http": "2.0.0",
            "elm/json": "1.1.3",
            "elm-community/array-extra": "2.1.0",
            "elm-community/list-extra": "8.2.1",
            "hecrj/html-parser": "2.3.4",
            "mdgriffith/elm-ui": "1.1.2"
        },
        "indirect": {
            "elm/bytes": "1.0.8",
            "elm/file": "1.0.5",
            "elm/parser": "1.1.0",
            "elm/time": "1.0.0",
            "elm/url": "1.0.0",
            "elm/virtual-dom": "1.0.2",
            "rtfeldman/elm-hex": "1.0.0"
        }
    },
    "test-dependencies": {
        "direct": {},
        "indirect": {}
    }
}